<?xml version="1.0" encoding="UTF-8"?>
<svg width="62px" height="62px" viewBox="0 0 62 62" version="1.1" xmlns="http://www.w3.org/2000/svg" xmlns:xlink="http://www.w3.org/1999/xlink">
    <!-- Generator: Sketch 49.3 (51167) - http://www.bohemiancoding.com/sketch -->
    <title>icon</title>
    <desc>Created with Sketch.</desc>
    <defs></defs>
    <g id="Page-1" stroke="none" stroke-width="1" fill="none" fill-rule="evenodd">
        <g id="X-Team-Partner-Sign-Up---step-4" transform="translate(-434.000000, -309.000000)">
            <g id="card" transform="translate(315.000000, 255.000000)">
                <g id="icon" transform="translate(120.000000, 55.000000)">
                    <path d="M29.5636098,-0.000146341463 C30.0538537,-0.000146341463 30.5426341,0.0115609756 31.0270244,0.0349756098" id="Stroke-3" stroke="#5A5665" stroke-width="2"></path>
                    <path d="M33.912439,0.317121951 C39.33,1.11614634 44.2167847,3.30415486 48.2601993,6.62171584" id="Stroke-5" stroke="#5A5665" stroke-width="2" stroke-dasharray="1.98,1.98"></path>
                    <path d="M49.4089756,7.65 C49.770439,7.97780488 50.123122,8.31439024 50.4684878,8.65829268" id="Stroke-7" stroke="#5A5665" stroke-width="2"></path>
                    <path d="M50.4686341,8.65887805 C55.818878,14.009122 59.1276585,21.3993659 59.1276585,29.5637561 C59.1276585,45.8910732 45.8910732,59.1261951 29.5637561,59.1261951 C13.236439,59.1261951 -0.000146341463,45.8910732 -0.000146341463,29.5637561 C-0.000146341463,13.236439 13.236439,-0.000146341463 29.5637561,-0.000146341463" id="Stroke-9" stroke="#5A5665" stroke-width="2"></path>
                    <g id="Group-14" transform="translate(29.268293, 0.590780)" stroke="#F63A55" stroke-linejoin="round" stroke-width="2">
                        <polyline id="Stroke-13" points="0.295317073 0.872487805 0.295317073 28.9729756 11.4172683 17.8510244"></polyline>
                    </g>
                    <circle id="Oval" fill="#F63A55" cx="50.5" cy="8.5" r="2.5"></circle>
                </g>
            </g>
        </g>
    </g>
</svg>