<?xml version="1.0" encoding="UTF-8"?>
<svg width="71px" height="60px" viewBox="0 0 71 60" version="1.1" xmlns="http://www.w3.org/2000/svg" xmlns:xlink="http://www.w3.org/1999/xlink">
    <!-- Generator: Sketch 49.3 (51167) - http://www.bohemiancoding.com/sketch -->
    <title>icon</title>
    <desc>Created with Sketch.</desc>
    <defs>
        <rect id="path-1" x="0" y="4.08451705" width="70.4256549" height="55.821733"></rect>
        <rect id="path-2" x="9.57241911" y="0" width="8.88867488" height="9.53053977"></rect>
        <rect id="path-3" x="30.76849" y="0" width="8.88867488" height="9.53053977"></rect>
        <rect id="path-4" x="51.9645609" y="0" width="8.88867488" height="9.53053977"></rect>
        <rect id="path-5" x="0.683744222" y="16.3380682" width="69.0581664" height="1.36150568"></rect>
    </defs>
    <g id="Page-1" stroke="none" stroke-width="1" fill="none" fill-rule="evenodd">
        <g id="X-Team-Partner-Sign-Up---step-3" transform="translate(-430.000000, -310.000000)">
            <g id="card" transform="translate(315.000000, 255.000000)">
                <g id="icon" transform="translate(115.000000, 55.000000)">
                    <g id="Productivity-icon">
                        <g id="Rectangle-41">
                            <use fill="#FFFFFF" fill-rule="evenodd" xlink:href="#path-1"></use>
                            <rect stroke="#5A5665" stroke-width="2" x="1" y="5.08451705" width="68.4256549" height="53.821733"></rect>
                        </g>
                        <g id="Rectangle-42">
                            <use fill="#F8F8F9" fill-rule="evenodd" xlink:href="#path-2"></use>
                            <rect stroke="#5A5665" stroke-width="2" x="10.5724191" y="1" width="6.88867488" height="7.53053977"></rect>
                        </g>
                        <g id="Rectangle-42-Copy">
                            <use fill="#F8F8F9" fill-rule="evenodd" xlink:href="#path-3"></use>
                            <rect stroke="#5A5665" stroke-width="2" x="31.76849" y="1" width="6.88867488" height="7.53053977"></rect>
                        </g>
                        <g id="Rectangle-42-Copy-2">
                            <use fill="#F8F8F9" fill-rule="evenodd" xlink:href="#path-4"></use>
                            <rect stroke="#5A5665" stroke-width="2" x="52.9645609" y="1" width="6.88867488" height="7.53053977"></rect>
                        </g>
                        <g id="Rectangle-44">
                            <use fill="#D8D8D8" fill-rule="evenodd" xlink:href="#path-5"></use>
                            <rect stroke="#5A5665" stroke-width="1" x="1.18374422" y="16.8380682" width="68.0581664" height="1"></rect>
                        </g>
                        <rect id="Rectangle-43" stroke="#CECCD1" x="10.7561633" y="12.0727983" width="6.52118644" height="1"></rect>
                        <rect id="Rectangle-43-Copy-2" stroke="#CECCD1" x="29.9010015" y="12.0727983" width="10.6236518" height="1"></rect>
                        <rect id="Rectangle-43-Copy" stroke="#CECCD1" x="53.1483051" y="12.0727983" width="6.52118644" height="1"></rect>
                    </g>
                    <g id="Group-5" transform="translate(7.220339, 21.566250)">
                        <rect id="Rectangle-48" fill="#F63A55" x="0" y="0" width="6.01694915" height="5.990625"></rect>
                        <rect id="Rectangle-48-Copy-4" fill="#D8D8D8" x="33.6949153" y="0" width="6.01694915" height="5.990625"></rect>
                        <rect id="Rectangle-48-Copy" fill="#D8D8D8" x="8.42372881" y="0" width="6.01694915" height="5.990625"></rect>
                        <rect id="Rectangle-48-Copy-5" fill="#D8D8D8" x="42.1186441" y="0" width="6.01694915" height="5.990625"></rect>
                        <rect id="Rectangle-48-Copy-2" fill="#D8D8D8" x="16.8474576" y="0" width="6.01694915" height="5.990625"></rect>
                        <rect id="Rectangle-48-Copy-6" fill="#D8D8D8" x="50.5423729" y="0" width="6.01694915" height="5.990625"></rect>
                        <rect id="Rectangle-48-Copy-3" fill="#D8D8D8" x="25.2711864" y="0" width="6.01694915" height="5.990625"></rect>
                    </g>
                    <g id="Group-5-Copy" transform="translate(7.220339, 29.953125)" fill="#D8D8D8">
                        <rect id="Rectangle-48" x="0" y="0" width="6.01694915" height="5.990625"></rect>
                        <rect id="Rectangle-48-Copy-4" x="33.6949153" y="0" width="6.01694915" height="5.990625"></rect>
                        <rect id="Rectangle-48-Copy" x="8.42372881" y="0" width="6.01694915" height="5.990625"></rect>
                        <rect id="Rectangle-48-Copy-5" x="42.1186441" y="0" width="6.01694915" height="5.990625"></rect>
                        <rect id="Rectangle-48-Copy-2" x="16.8474576" y="0" width="6.01694915" height="5.990625"></rect>
                        <rect id="Rectangle-48-Copy-6" x="50.5423729" y="0" width="6.01694915" height="5.990625"></rect>
                        <rect id="Rectangle-48-Copy-3" x="25.2711864" y="0" width="6.01694915" height="5.990625"></rect>
                    </g>
                    <g id="Group-5-Copy-2" transform="translate(7.220339, 38.340000)" fill="#D8D8D8">
                        <rect id="Rectangle-48" x="0" y="0" width="6.01694915" height="5.990625"></rect>
                        <rect id="Rectangle-48-Copy-4" x="33.6949153" y="0" width="6.01694915" height="5.990625"></rect>
                        <rect id="Rectangle-48-Copy" x="8.42372881" y="0" width="6.01694915" height="5.990625"></rect>
                        <rect id="Rectangle-48-Copy-5" x="42.1186441" y="0" width="6.01694915" height="5.990625"></rect>
                        <rect id="Rectangle-48-Copy-2" x="16.8474576" y="0" width="6.01694915" height="5.990625"></rect>
                        <rect id="Rectangle-48-Copy-6" x="50.5423729" y="0" width="6.01694915" height="5.990625"></rect>
                        <rect id="Rectangle-48-Copy-3" x="25.2711864" y="0" width="6.01694915" height="5.990625"></rect>
                    </g>
                    <g id="Group-5-Copy-3" transform="translate(7.220339, 46.726875)">
                        <rect id="Rectangle-48" fill="#D8D8D8" x="0" y="0" width="6.01694915" height="5.990625"></rect>
                        <rect id="Rectangle-48-Copy-4" fill="#D8D8D8" x="33.6949153" y="0" width="6.01694915" height="5.990625"></rect>
                        <rect id="Rectangle-48-Copy" fill="#D8D8D8" x="8.42372881" y="0" width="6.01694915" height="5.990625"></rect>
                        <rect id="Rectangle-48-Copy-5" fill="#D8D8D8" x="42.1186441" y="0" width="6.01694915" height="5.990625"></rect>
                        <rect id="Rectangle-48-Copy-2" fill="#D8D8D8" x="16.8474576" y="0" width="6.01694915" height="5.990625"></rect>
                        <rect id="Rectangle-48-Copy-6" fill="#F63A55" x="50.5423729" y="0" width="6.01694915" height="5.990625"></rect>
                        <rect id="Rectangle-48-Copy-3" fill="#D8D8D8" x="25.2711864" y="0" width="6.01694915" height="5.990625"></rect>
                    </g>
                </g>
            </g>
        </g>
    </g>
</svg>